<?xml version="1.0" encoding="utf-8"?>
<!-- Generator: Adobe Illustrator 16.0.0, SVG Export Plug-In . SVG Version: 6.00 Build 0)  -->
<!DOCTYPE svg PUBLIC "-//W3C//DTD SVG 1.1//EN" "http://www.w3.org/Graphics/SVG/1.1/DTD/svg11.dtd">
<svg version="1.1" id="Layer_1" xmlns="http://www.w3.org/2000/svg" xmlns:xlink="http://www.w3.org/1999/xlink" x="0px" y="0px"
	 width="51.787px" height="28.994px" viewBox="0 0 51.787 28.994" enable-background="new 0 0 51.787 28.994" xml:space="preserve">
<g>
	<path fill="#EA537E" d="M7.246,2.92C7.85,2.902,8.365,3.082,8.787,3.455c0.425,0.371,0.726,0.863,0.911,1.467
		c0.304,1.01,0.254,2.016-0.157,3.014C9.25,8.645,8.997,9.174,8.789,9.516c-0.206,0.342-0.524,0.748-0.953,1.221
		C7.667,10.94,7.507,11.141,7.35,11.34c-0.233,0.271-0.438,0.438-0.612,0.488l-0.035,0.01c-0.191,0.045-0.382,0.041-0.578-0.014
		c-0.193-0.059-0.387-0.105-0.578-0.152c-1.504-0.396-2.69-0.877-3.557-1.44c-0.983-0.646-1.605-1.405-1.869-2.28
		c-0.162-0.533-0.16-1.057,0.003-1.564C0.1,6.305,0.128,6.125,0.208,5.848l0.19-0.383c0.316-0.5,0.806-0.854,1.472-1.055
		c0.523-0.158,1.074-0.135,1.657,0.064c0.579,0.199,0.881,0.447,0.903,0.438l0.014-0.174C4.456,4.734,4.658,4.49,5.051,4.004
		c0.39-0.486,0.849-0.811,1.372-0.969C6.681,2.961,6.954,2.92,7.246,2.92"/>
	<path fill="#563636" d="M50.632,24.174l-1.462-2.553c0,0-0.066-0.018-0.101-0.025c0.035,0.002,0.103,0.004,0.103,0.004l2.115-2.041
		l-2.038-2.121l-0.108,0.002l0.106-0.023l1.548-2.502l-2.497-1.549l-0.106,0.025l0.099-0.047l0.881-2.809l-2.803-0.881
		c0,0-0.064,0.033-0.095,0.051c0.027-0.021,0.054-0.045,0.081-0.07l0.164-2.938l-2.933-0.166l-0.075,0.07
		c0,0,0.041-0.055,0.062-0.086L43.01,3.627l-2.884,0.562l-0.058,0.09l0.04-0.1l-1.259-2.66l-2.655,1.26
		c-0.013,0.035-0.034,0.102-0.034,0.102s0.011-0.066,0.013-0.102L34.316,0.5l-2.278,1.863c-0.002,0.033-0.004,0.068-0.006,0.104
		c-0.004-0.037-0.008-0.076-0.014-0.115l-2.36-1.75l-1.75,2.365c0.007,0.037,0.013,0.072,0.019,0.107
		c-0.012-0.033-0.025-0.066-0.039-0.1l-2.724-1.104L24.063,4.6c0,0,0.029,0.066,0.046,0.1c-0.021-0.029-0.042-0.059-0.062-0.086
		l-2.913-0.395l-0.393,2.918c0.021,0.027,0.044,0.058,0.066,0.084c-0.027-0.025-0.053-0.047-0.083-0.069l-2.921,0.321l0.322,2.926
		c0,0,0.057,0.043,0.084,0.064c-0.032-0.018-0.094-0.047-0.094-0.047l-2.751,1.037v17.041h33.503l-0.788-2.834
		c0,0-0.062-0.035-0.095-0.05c0.033,0.009,0.101,0.028,0.101,0.028L50.632,24.174z"/>
	<path fill="none" stroke="#563636" stroke-linecap="round" stroke-linejoin="round" stroke-miterlimit="10" d="M50.632,24.174
		l-1.462-2.553c0,0-0.066-0.018-0.101-0.025c0.035,0.002,0.103,0.004,0.103,0.004l2.115-2.041l-2.038-2.121l-0.108,0.002
		l0.106-0.023l1.548-2.502l-2.497-1.549l-0.106,0.025l0.099-0.047l0.881-2.809l-2.803-0.881c0,0-0.064,0.033-0.095,0.051
		c0.027-0.021,0.054-0.045,0.081-0.07l0.164-2.938l-2.933-0.166l-0.075,0.07c0,0,0.041-0.055,0.062-0.086L43.01,3.627l-2.884,0.562
		l-0.058,0.09l0.04-0.1l-1.259-2.66l-2.655,1.26c-0.013,0.035-0.034,0.102-0.034,0.102s0.011-0.066,0.013-0.102L34.316,0.5
		l-2.278,1.863c-0.002,0.033-0.004,0.068-0.006,0.104c-0.004-0.037-0.008-0.076-0.014-0.115l-2.36-1.75l-1.75,2.365
		c0.007,0.037,0.013,0.072,0.019,0.107c-0.012-0.033-0.025-0.066-0.039-0.1l-2.724-1.104L24.063,4.6c0,0,0.029,0.066,0.046,0.1
		c-0.021-0.029-0.042-0.059-0.062-0.086l-2.913-0.395l-0.393,2.918c0.021,0.027,0.044,0.059,0.066,0.084
		c-0.027-0.025-0.053-0.047-0.083-0.069l-2.921,0.321l0.322,2.926c0,0,0.057,0.043,0.084,0.064
		c-0.032-0.018-0.094-0.047-0.094-0.047l-2.751,1.037v17.041h33.503l-0.788-2.834c0,0-0.062-0.035-0.095-0.05
		c0.033,0.009,0.101,0.028,0.101,0.028L50.632,24.174z"/>
	<polyline fill="none" stroke="#DBA976" stroke-linecap="round" stroke-linejoin="round" stroke-miterlimit="10" points="
		34.178,11.686 33.297,10.605 32.251,11.461 	"/>
	<polyline fill="none" stroke="#DBA976" stroke-linecap="round" stroke-linejoin="round" stroke-miterlimit="10" points="
		38.887,14.824 38.962,13.467 37.61,13.391 37.349,12.051 36.023,12.311 	"/>
	<polyline fill="none" stroke="#DBA976" stroke-linecap="round" stroke-linejoin="round" stroke-miterlimit="10" points="
		40.214,18.387 40.926,17.234 39.781,16.523 	"/>
	<polyline fill="none" stroke="#DBA976" stroke-linecap="round" stroke-linejoin="round" stroke-miterlimit="10" points="
		39.678,22.193 40.848,21.521 40.163,20.324 	"/>
	<polyline fill="none" stroke="#DBA976" stroke-linecap="round" stroke-linejoin="round" stroke-miterlimit="10" points="
		25.973,7.92 23.717,7.613 23.41,9.889 	"/>
	<polyline fill="none" stroke="#DBA976" stroke-linecap="round" stroke-linejoin="round" stroke-miterlimit="10" points="
		32.126,6.188 30.286,4.822 28.932,6.652 	"/>
	<polyline fill="none" stroke="#DBA976" stroke-linecap="round" stroke-linejoin="round" stroke-miterlimit="10" points="
		41.069,9.414 40.631,7.168 38.394,7.604 37.418,5.539 35.339,6.527 	"/>
	<polyline fill="none" stroke="#DBA976" stroke-linecap="round" stroke-linejoin="round" stroke-miterlimit="10" points="
		44.712,14.688 45.396,12.51 43.215,11.822 	"/>
	<polyline fill="none" stroke="#DBA976" stroke-linecap="round" stroke-linejoin="round" stroke-miterlimit="10" points="
		44.546,24.195 46.521,23.059 45.381,21.07 47.029,19.479 45.446,17.83 	"/>
	<path fill="#DBA976" d="M20.376,14.709l-5.011-0.002c-0.001,3.809-3.087,6.895-6.895,6.895c0,3.807,3.087,6.893,6.894,6.893h5.012
		c3.808,0,6.894-3.086,6.894-6.893S24.184,14.709,20.376,14.709"/>
	<path fill="none" stroke="#DBA976" stroke-linecap="round" stroke-linejoin="round" stroke-miterlimit="10" d="M20.376,14.709
		l-5.011-0.002c-0.001,3.809-3.087,6.895-6.895,6.895c0,3.807,3.087,6.893,6.894,6.893h5.012c3.808,0,6.894-3.086,6.894-6.893
		S24.184,14.709,20.376,14.709z"/>
	<path fill="#DBA976" d="M26.104,13.834c1.233,0,2.234,1,2.233,2.232c0.001,1.234-1,2.232-2.233,2.234
		c-1.233-0.002-2.233-1-2.233-2.234C23.872,14.834,24.872,13.834,26.104,13.834"/>
	<circle fill="none" stroke="#DBA976" stroke-miterlimit="10" cx="26.104" cy="16.067" r="2.233"/>
	<path fill="#563636" d="M18.831,19.475c0.531,0.531,0.531,1.391,0,1.922c-0.531,0.531-1.391,0.531-1.922,0
		c-0.531-0.531-0.531-1.391,0-1.922C17.44,18.943,18.3,18.943,18.831,19.475"/>
	<circle fill="none" stroke="#563636" stroke-miterlimit="10" cx="17.87" cy="20.436" r="1.359"/>
	<path fill="#563636" d="M8.402,20.436c0,0.271-0.217,0.484-0.485,0.484s-0.486-0.214-0.486-0.484c0-0.27,0.218-0.484,0.486-0.484
		S8.402,20.168,8.402,20.436"/>
	<path fill="none" stroke="#563636" stroke-width="2" stroke-miterlimit="10" d="M8.402,20.436c0,0.271-0.217,0.484-0.485,0.484
		s-0.486-0.214-0.486-0.484c0-0.27,0.218-0.484,0.486-0.484S8.402,20.168,8.402,20.436z"/>
</g>
</svg>
